{
  "public": {
    "uploadcare":{
      "publickey":"Upload Care Public Key"
    }
  },
  "private": {
    "oAuth": {
      "google": {
        "clientId": "",
        "secret": ""
      }
    }
  }
}